reports/simulation_report.txt
VCD info: dumpfile waveforms/fifo_tb.vcd opened for output.
Time=0 | wr_en=0 rd_en=0 wr_data=00 rd_data=xx full=0 empty=1
====================================
 Starting FIFO Directed Test Cases 
====================================
Time=65000 | wr_en=1 rd_en=0 wr_data=11 rd_data=xx full=0 empty=0
Time=75000 | wr_en=0 rd_en=0 wr_data=00 rd_data=xx full=0 empty=0
Time=85000 | wr_en=0 rd_en=1 wr_data=00 rd_data=xx full=0 empty=1
Time=95000 | wr_en=0 rd_en=0 wr_data=00 rd_data=xx full=0 empty=1
Time=105000 | wr_en=1 rd_en=0 wr_data=21 rd_data=xx full=0 empty=0
Time=115000 | wr_en=0 rd_en=0 wr_data=00 rd_data=xx full=0 empty=0
Time=125000 | wr_en=1 rd_en=0 wr_data=22 rd_data=xx full=0 empty=0
Time=135000 | wr_en=0 rd_en=0 wr_data=00 rd_data=xx full=0 empty=0
Time=145000 | wr_en=1 rd_en=0 wr_data=23 rd_data=xx full=0 empty=0
Time=155000 | wr_en=0 rd_en=0 wr_data=00 rd_data=xx full=0 empty=0
Time=165000 | wr_en=0 rd_en=1 wr_data=00 rd_data=xx full=0 empty=0
Time=175000 | wr_en=0 rd_en=0 wr_data=00 rd_data=11 full=0 empty=0
Time=185000 | wr_en=0 rd_en=1 wr_data=00 rd_data=11 full=0 empty=0
Time=195000 | wr_en=0 rd_en=0 wr_data=00 rd_data=21 full=0 empty=0
Time=205000 | wr_en=0 rd_en=1 wr_data=00 rd_data=21 full=0 empty=1
Time=215000 | wr_en=0 rd_en=0 wr_data=00 rd_data=21 full=0 empty=1
Time=225000 | wr_en=1 rd_en=0 wr_data=31 rd_data=21 full=0 empty=0
Time=235000 | wr_en=0 rd_en=0 wr_data=00 rd_data=21 full=0 empty=0
Time=245000 | wr_en=0 rd_en=1 wr_data=00 rd_data=21 full=0 empty=1
Time=255000 | wr_en=0 rd_en=0 wr_data=00 rd_data=21 full=0 empty=1
Time=265000 | wr_en=1 rd_en=0 wr_data=32 rd_data=21 full=0 empty=0
Time=275000 | wr_en=0 rd_en=0 wr_data=00 rd_data=21 full=0 empty=0
Time=285000 | wr_en=0 rd_en=1 wr_data=00 rd_data=21 full=0 empty=1
Time=295000 | wr_en=0 rd_en=0 wr_data=00 rd_data=21 full=0 empty=1
Time=305000 | wr_en=1 rd_en=0 wr_data=33 rd_data=21 full=0 empty=0
Time=315000 | wr_en=0 rd_en=0 wr_data=00 rd_data=21 full=0 empty=0
Time=325000 | wr_en=0 rd_en=1 wr_data=00 rd_data=21 full=0 empty=1
Time=335000 | wr_en=0 rd_en=0 wr_data=00 rd_data=21 full=0 empty=1
Time=345000 | wr_en=1 rd_en=0 wr_data=41 rd_data=21 full=0 empty=0
Time=355000 | wr_en=0 rd_en=0 wr_data=00 rd_data=21 full=0 empty=0
Time=365000 | wr_en=1 rd_en=0 wr_data=42 rd_data=21 full=0 empty=0
Time=375000 | wr_en=0 rd_en=0 wr_data=00 rd_data=21 full=0 empty=0
Time=385000 | wr_en=1 rd_en=0 wr_data=43 rd_data=21 full=0 empty=0
Time=395000 | wr_en=0 rd_en=0 wr_data=00 rd_data=21 full=0 empty=0
Time=405000 | wr_en=1 rd_en=0 wr_data=44 rd_data=21 full=0 empty=0
Time=415000 | wr_en=0 rd_en=0 wr_data=00 rd_data=21 full=0 empty=0
Time=425000 | wr_en=1 rd_en=0 wr_data=45 rd_data=21 full=0 empty=0
Time=435000 | wr_en=0 rd_en=0 wr_data=00 rd_data=21 full=0 empty=0
Time=445000 | wr_en=1 rd_en=0 wr_data=46 rd_data=21 full=0 empty=0
Time=455000 | wr_en=0 rd_en=0 wr_data=00 rd_data=21 full=0 empty=0
Time=465000 | wr_en=0 rd_en=1 wr_data=00 rd_data=21 full=0 empty=0
Time=475000 | wr_en=0 rd_en=0 wr_data=00 rd_data=22 full=0 empty=0
Time=485000 | wr_en=0 rd_en=1 wr_data=00 rd_data=22 full=0 empty=0
Time=495000 | wr_en=0 rd_en=0 wr_data=00 rd_data=23 full=0 empty=0
Time=505000 | wr_en=0 rd_en=1 wr_data=00 rd_data=23 full=0 empty=0
Time=515000 | wr_en=0 rd_en=0 wr_data=00 rd_data=31 full=0 empty=0
Time=525000 | wr_en=0 rd_en=1 wr_data=00 rd_data=31 full=0 empty=0
Time=535000 | wr_en=0 rd_en=0 wr_data=00 rd_data=32 full=0 empty=0
Time=545000 | wr_en=0 rd_en=1 wr_data=00 rd_data=32 full=0 empty=0
Time=555000 | wr_en=0 rd_en=0 wr_data=00 rd_data=33 full=0 empty=0
Time=565000 | wr_en=0 rd_en=1 wr_data=00 rd_data=33 full=0 empty=1
Time=575000 | wr_en=0 rd_en=0 wr_data=00 rd_data=33 full=0 empty=1
Time=585000 | wr_en=1 rd_en=0 wr_data=24 rd_data=33 full=0 empty=0
Time=595000 | wr_en=0 rd_en=0 wr_data=00 rd_data=33 full=0 empty=0
Time=605000 | wr_en=1 rd_en=0 wr_data=81 rd_data=33 full=0 empty=0
Time=615000 | wr_en=0 rd_en=0 wr_data=00 rd_data=33 full=0 empty=0
Time=625000 | wr_en=1 rd_en=0 wr_data=09 rd_data=33 full=0 empty=0
Time=635000 | wr_en=0 rd_en=0 wr_data=00 rd_data=33 full=0 empty=0
Time=645000 | wr_en=1 rd_en=0 wr_data=63 rd_data=33 full=0 empty=0
Time=655000 | wr_en=0 rd_en=0 wr_data=00 rd_data=33 full=0 empty=0
Time=665000 | wr_en=1 rd_en=0 wr_data=0d rd_data=33 full=0 empty=0
Time=675000 | wr_en=0 rd_en=0 wr_data=00 rd_data=33 full=0 empty=0
Time=685000 | wr_en=1 rd_en=0 wr_data=8d rd_data=33 full=0 empty=0
Time=695000 | wr_en=0 rd_en=0 wr_data=00 rd_data=33 full=0 empty=0
Time=705000 | wr_en=1 rd_en=0 wr_data=65 rd_data=33 full=0 empty=0
Time=715000 | wr_en=0 rd_en=0 wr_data=00 rd_data=33 full=0 empty=0
Time=725000 | wr_en=1 rd_en=0 wr_data=12 rd_data=33 full=0 empty=0
Time=735000 | wr_en=0 rd_en=0 wr_data=00 rd_data=33 full=0 empty=0
Time=745000 | wr_en=1 rd_en=0 wr_data=01 rd_data=33 full=0 empty=0
Time=755000 | wr_en=0 rd_en=0 wr_data=00 rd_data=33 full=0 empty=0
Time=765000 | wr_en=1 rd_en=0 wr_data=0d rd_data=33 full=0 empty=0
Time=775000 | wr_en=0 rd_en=0 wr_data=00 rd_data=33 full=0 empty=0
Time=785000 | wr_en=1 rd_en=0 wr_data=76 rd_data=33 full=0 empty=0
Time=795000 | wr_en=0 rd_en=0 wr_data=00 rd_data=33 full=0 empty=0
Time=805000 | wr_en=1 rd_en=0 wr_data=3d rd_data=33 full=0 empty=0
Time=815000 | wr_en=0 rd_en=0 wr_data=00 rd_data=33 full=0 empty=0
Time=825000 | wr_en=1 rd_en=0 wr_data=ed rd_data=33 full=0 empty=0
Time=835000 | wr_en=0 rd_en=0 wr_data=00 rd_data=33 full=0 empty=0
Time=845000 | wr_en=1 rd_en=0 wr_data=8c rd_data=33 full=0 empty=0
Time=855000 | wr_en=0 rd_en=0 wr_data=00 rd_data=33 full=0 empty=0
Time=865000 | wr_en=1 rd_en=0 wr_data=f9 rd_data=33 full=0 empty=0
Time=875000 | wr_en=0 rd_en=0 wr_data=00 rd_data=33 full=0 empty=0
Time=885000 | wr_en=1 rd_en=0 wr_data=c6 rd_data=33 full=1 empty=0
Time=895000 | wr_en=0 rd_en=0 wr_data=00 rd_data=33 full=1 empty=0
Time=945000 | wr_en=0 rd_en=1 wr_data=00 rd_data=33 full=0 empty=0
Time=955000 | wr_en=0 rd_en=0 wr_data=00 rd_data=76 full=0 empty=0
Time=965000 | wr_en=0 rd_en=1 wr_data=00 rd_data=76 full=0 empty=0
Time=975000 | wr_en=0 rd_en=0 wr_data=00 rd_data=3d full=0 empty=0
Time=985000 | wr_en=0 rd_en=1 wr_data=00 rd_data=3d full=0 empty=0
Time=995000 | wr_en=0 rd_en=0 wr_data=00 rd_data=ed full=0 empty=0
Time=1005000 | wr_en=0 rd_en=1 wr_data=00 rd_data=ed full=0 empty=0
Time=1015000 | wr_en=0 rd_en=0 wr_data=00 rd_data=8c full=0 empty=0
Time=1025000 | wr_en=0 rd_en=1 wr_data=00 rd_data=8c full=0 empty=0
Time=1035000 | wr_en=0 rd_en=0 wr_data=00 rd_data=f9 full=0 empty=0
Time=1045000 | wr_en=0 rd_en=1 wr_data=00 rd_data=f9 full=0 empty=0
Time=1055000 | wr_en=0 rd_en=0 wr_data=00 rd_data=46 full=0 empty=0
Time=1065000 | wr_en=0 rd_en=1 wr_data=00 rd_data=46 full=0 empty=0
Time=1075000 | wr_en=0 rd_en=0 wr_data=00 rd_data=24 full=0 empty=0
Time=1085000 | wr_en=0 rd_en=1 wr_data=00 rd_data=24 full=0 empty=0
Time=1095000 | wr_en=0 rd_en=0 wr_data=00 rd_data=81 full=0 empty=0
Time=1105000 | wr_en=0 rd_en=1 wr_data=00 rd_data=81 full=0 empty=0
Time=1115000 | wr_en=0 rd_en=0 wr_data=00 rd_data=09 full=0 empty=0
Time=1125000 | wr_en=0 rd_en=1 wr_data=00 rd_data=09 full=0 empty=0
Time=1135000 | wr_en=0 rd_en=0 wr_data=00 rd_data=63 full=0 empty=0
Time=1145000 | wr_en=0 rd_en=1 wr_data=00 rd_data=63 full=0 empty=0
Time=1155000 | wr_en=0 rd_en=0 wr_data=00 rd_data=0d full=0 empty=0
Time=1165000 | wr_en=0 rd_en=1 wr_data=00 rd_data=0d full=0 empty=0
Time=1175000 | wr_en=0 rd_en=0 wr_data=00 rd_data=8d full=0 empty=0
Time=1185000 | wr_en=0 rd_en=1 wr_data=00 rd_data=8d full=0 empty=0
Time=1195000 | wr_en=0 rd_en=0 wr_data=00 rd_data=65 full=0 empty=0
Time=1205000 | wr_en=0 rd_en=1 wr_data=00 rd_data=65 full=0 empty=0
Time=1215000 | wr_en=0 rd_en=0 wr_data=00 rd_data=12 full=0 empty=0
Time=1225000 | wr_en=0 rd_en=1 wr_data=00 rd_data=12 full=0 empty=0
Time=1235000 | wr_en=0 rd_en=0 wr_data=00 rd_data=01 full=0 empty=0
Time=1245000 | wr_en=0 rd_en=1 wr_data=00 rd_data=01 full=0 empty=1
Time=1255000 | wr_en=0 rd_en=0 wr_data=00 rd_data=01 full=0 empty=1
Time=1305000 | wr_en=1 rd_en=0 wr_data=c5 rd_data=01 full=0 empty=0
Time=1315000 | wr_en=0 rd_en=0 wr_data=00 rd_data=01 full=0 empty=0
Time=1325000 | wr_en=1 rd_en=0 wr_data=aa rd_data=01 full=0 empty=0
Time=1335000 | wr_en=0 rd_en=0 wr_data=00 rd_data=01 full=0 empty=0
Time=1345000 | wr_en=1 rd_en=0 wr_data=e5 rd_data=01 full=0 empty=0
Time=1355000 | wr_en=0 rd_en=0 wr_data=00 rd_data=01 full=0 empty=0
Time=1365000 | wr_en=1 rd_en=0 wr_data=77 rd_data=01 full=0 empty=0
Time=1375000 | wr_en=0 rd_en=0 wr_data=00 rd_data=01 full=0 empty=0
Time=1385000 | wr_en=1 rd_en=0 wr_data=12 rd_data=01 full=0 empty=0
Time=1395000 | wr_en=0 rd_en=0 wr_data=00 rd_data=01 full=0 empty=0
Time=1405000 | wr_en=1 rd_en=0 wr_data=8f rd_data=01 full=0 empty=0
Time=1415000 | wr_en=0 rd_en=0 wr_data=00 rd_data=01 full=0 empty=0
Time=1425000 | wr_en=1 rd_en=0 wr_data=f2 rd_data=01 full=0 empty=0
Time=1435000 | wr_en=0 rd_en=0 wr_data=00 rd_data=01 full=0 empty=0
Time=1445000 | wr_en=1 rd_en=0 wr_data=ce rd_data=01 full=0 empty=0
Time=1455000 | wr_en=0 rd_en=0 wr_data=00 rd_data=01 full=0 empty=0
Time=1465000 | wr_en=1 rd_en=0 wr_data=e8 rd_data=01 full=0 empty=0
Time=1475000 | wr_en=0 rd_en=0 wr_data=00 rd_data=01 full=0 empty=0
Time=1485000 | wr_en=1 rd_en=0 wr_data=c5 rd_data=01 full=0 empty=0
Time=1495000 | wr_en=0 rd_en=0 wr_data=00 rd_data=01 full=0 empty=0
Time=1505000 | wr_en=1 rd_en=0 wr_data=5c rd_data=01 full=0 empty=0
Time=1515000 | wr_en=0 rd_en=0 wr_data=00 rd_data=01 full=0 empty=0
Time=1525000 | wr_en=1 rd_en=0 wr_data=bd rd_data=01 full=0 empty=0
Time=1535000 | wr_en=0 rd_en=0 wr_data=00 rd_data=01 full=0 empty=0
Time=1545000 | wr_en=1 rd_en=0 wr_data=2d rd_data=01 full=0 empty=0
Time=1555000 | wr_en=0 rd_en=0 wr_data=00 rd_data=01 full=0 empty=0
Time=1565000 | wr_en=1 rd_en=0 wr_data=65 rd_data=01 full=0 empty=0
Time=1575000 | wr_en=0 rd_en=0 wr_data=00 rd_data=01 full=0 empty=0
Time=1585000 | wr_en=1 rd_en=0 wr_data=63 rd_data=01 full=0 empty=0
Time=1595000 | wr_en=0 rd_en=0 wr_data=00 rd_data=01 full=0 empty=0
Time=1605000 | wr_en=1 rd_en=0 wr_data=0a rd_data=01 full=1 empty=0
Time=1615000 | wr_en=0 rd_en=0 wr_data=00 rd_data=01 full=1 empty=0
Time=1665000 | wr_en=0 rd_en=1 wr_data=00 rd_data=01 full=0 empty=0
Time=1675000 | wr_en=0 rd_en=0 wr_data=00 rd_data=5c full=0 empty=0
Time=1685000 | wr_en=0 rd_en=1 wr_data=00 rd_data=5c full=0 empty=0
Time=1695000 | wr_en=0 rd_en=0 wr_data=00 rd_data=bd full=0 empty=0
Time=1705000 | wr_en=0 rd_en=1 wr_data=00 rd_data=bd full=0 empty=0
Time=1715000 | wr_en=0 rd_en=0 wr_data=00 rd_data=2d full=0 empty=0
Time=1725000 | wr_en=0 rd_en=1 wr_data=00 rd_data=2d full=0 empty=0
Time=1735000 | wr_en=0 rd_en=0 wr_data=00 rd_data=65 full=0 empty=0
Time=1745000 | wr_en=0 rd_en=1 wr_data=00 rd_data=65 full=0 empty=0
Time=1755000 | wr_en=0 rd_en=0 wr_data=00 rd_data=63 full=0 empty=0
Time=1765000 | wr_en=0 rd_en=1 wr_data=00 rd_data=63 full=0 empty=0
Time=1775000 | wr_en=0 rd_en=0 wr_data=00 rd_data=f9 full=0 empty=0
Time=1785000 | wr_en=0 rd_en=1 wr_data=00 rd_data=f9 full=0 empty=0
Time=1795000 | wr_en=0 rd_en=0 wr_data=00 rd_data=c5 full=0 empty=0
Time=1805000 | wr_en=0 rd_en=1 wr_data=00 rd_data=c5 full=0 empty=0
Time=1815000 | wr_en=0 rd_en=0 wr_data=00 rd_data=aa full=0 empty=0
Time=1825000 | wr_en=1 rd_en=0 wr_data=aa rd_data=aa full=0 empty=0
Time=1835000 | wr_en=0 rd_en=0 wr_data=00 rd_data=aa full=0 empty=0
Time=1845000 | wr_en=1 rd_en=0 wr_data=9d rd_data=aa full=0 empty=0
Time=1855000 | wr_en=0 rd_en=0 wr_data=00 rd_data=aa full=0 empty=0
Time=1865000 | wr_en=1 rd_en=0 wr_data=96 rd_data=aa full=0 empty=0
Time=1875000 | wr_en=0 rd_en=0 wr_data=00 rd_data=aa full=0 empty=0
Time=1885000 | wr_en=1 rd_en=0 wr_data=13 rd_data=aa full=0 empty=0
Time=1895000 | wr_en=0 rd_en=0 wr_data=00 rd_data=aa full=0 empty=0
Time=1905000 | wr_en=1 rd_en=0 wr_data=0d rd_data=aa full=0 empty=0
Time=1915000 | wr_en=0 rd_en=0 wr_data=00 rd_data=aa full=0 empty=0
Time=1925000 | wr_en=1 rd_en=0 wr_data=53 rd_data=aa full=0 empty=0
Time=1935000 | wr_en=0 rd_en=0 wr_data=00 rd_data=aa full=0 empty=0
Time=1945000 | wr_en=1 rd_en=0 wr_data=6b rd_data=aa full=0 empty=0
Time=1955000 | wr_en=0 rd_en=0 wr_data=00 rd_data=aa full=0 empty=0
Time=1965000 | wr_en=1 rd_en=0 wr_data=d5 rd_data=aa full=1 empty=0
Time=1975000 | wr_en=0 rd_en=0 wr_data=00 rd_data=aa full=1 empty=0
Time=1985000 | wr_en=0 rd_en=1 wr_data=00 rd_data=aa full=0 empty=0
Time=1995000 | wr_en=0 rd_en=0 wr_data=00 rd_data=13 full=0 empty=0
Time=2005000 | wr_en=0 rd_en=1 wr_data=00 rd_data=13 full=0 empty=0
Time=2015000 | wr_en=0 rd_en=0 wr_data=00 rd_data=0d full=0 empty=0
Time=2025000 | wr_en=0 rd_en=1 wr_data=00 rd_data=0d full=0 empty=0
Time=2035000 | wr_en=0 rd_en=0 wr_data=00 rd_data=53 full=0 empty=0
Time=2045000 | wr_en=0 rd_en=1 wr_data=00 rd_data=53 full=0 empty=0
Time=2055000 | wr_en=0 rd_en=0 wr_data=00 rd_data=6b full=0 empty=0
Time=2065000 | wr_en=0 rd_en=1 wr_data=00 rd_data=6b full=0 empty=0
Time=2075000 | wr_en=0 rd_en=0 wr_data=00 rd_data=f2 full=0 empty=0
Time=2085000 | wr_en=0 rd_en=1 wr_data=00 rd_data=f2 full=0 empty=0
Time=2095000 | wr_en=0 rd_en=0 wr_data=00 rd_data=ce full=0 empty=0
Time=2105000 | wr_en=0 rd_en=1 wr_data=00 rd_data=ce full=0 empty=0
Time=2115000 | wr_en=0 rd_en=0 wr_data=00 rd_data=e8 full=0 empty=0
Time=2125000 | wr_en=0 rd_en=1 wr_data=00 rd_data=e8 full=0 empty=0
Time=2135000 | wr_en=0 rd_en=0 wr_data=00 rd_data=c5 full=0 empty=0
Time=2145000 | wr_en=0 rd_en=1 wr_data=00 rd_data=c5 full=0 empty=0
Time=2155000 | wr_en=0 rd_en=0 wr_data=00 rd_data=5c full=0 empty=0
Time=2165000 | wr_en=0 rd_en=1 wr_data=00 rd_data=5c full=0 empty=0
Time=2175000 | wr_en=0 rd_en=0 wr_data=00 rd_data=bd full=0 empty=0
Time=2185000 | wr_en=0 rd_en=1 wr_data=00 rd_data=bd full=0 empty=0
Time=2195000 | wr_en=0 rd_en=0 wr_data=00 rd_data=2d full=0 empty=0
Time=2205000 | wr_en=0 rd_en=1 wr_data=00 rd_data=2d full=0 empty=0
Time=2215000 | wr_en=0 rd_en=0 wr_data=00 rd_data=65 full=0 empty=0
Time=2225000 | wr_en=0 rd_en=1 wr_data=00 rd_data=65 full=0 empty=0
Time=2235000 | wr_en=0 rd_en=0 wr_data=00 rd_data=63 full=0 empty=0
Time=2245000 | wr_en=0 rd_en=1 wr_data=00 rd_data=63 full=0 empty=0
Time=2255000 | wr_en=0 rd_en=0 wr_data=00 rd_data=aa full=0 empty=0
Time=2265000 | wr_en=0 rd_en=1 wr_data=00 rd_data=aa full=0 empty=0
Time=2275000 | wr_en=0 rd_en=0 wr_data=00 rd_data=9d full=0 empty=0
Time=2285000 | wr_en=0 rd_en=1 wr_data=00 rd_data=9d full=0 empty=1
Time=2295000 | wr_en=0 rd_en=0 wr_data=00 rd_data=9d full=0 empty=1
Time=2345000 | wr_en=1 rd_en=1 wr_data=aa rd_data=9d full=0 empty=0
Time=2355000 | wr_en=0 rd_en=0 wr_data=aa rd_data=96 full=0 empty=0
========================================
 Directed Test Cases Completed 
========================================
====================================
 Simulation Completed 
====================================
tb\fifo_tb.v:262: $finish called at 2425000 (1ps)