reports/simulation_report.txt
VCD info: dumpfile waveforms/fifo_tb.vcd opened for output.
========================================
 Starting FIFO Corner Test Cases 
========================================
CT01 : Reset During Active Operation
========================================
 Starting Randomized Stress Test 
========================================
Time=0 | wr_en=0 rd_en=0 wr_data=00 rd_data=xx full=0 empty=1
Time=5000 | wr_en=1 rd_en=0 wr_data=92 rd_data=xx full=0 empty=1
Time=15000 | wr_en=0 rd_en=0 wr_data=00 rd_data=xx full=0 empty=1
====================================
 Starting FIFO Directed Test Cases 
====================================
Time=25000 | wr_en=0 rd_en=0 wr_data=00 rd_data=xx full=0 empty=1
Time=65000 | wr_en=1 rd_en=0 wr_data=11 rd_data=xx full=0 empty=0
CT02 : Fill -> Empty -> Fill Again
Time=75000 | wr_en=0 rd_en=1 wr_data=00 rd_data=xx full=0 empty=1
Time=85000 | wr_en=0 rd_en=0 wr_data=00 rd_data=xx full=0 empty=1
Time=95000 | wr_en=1 rd_en=0 wr_data=04 rd_data=xx full=0 empty=0
Time=105000 | wr_en=0 rd_en=0 wr_data=00 rd_data=xx full=0 empty=0
Time=115000 | wr_en=0 rd_en=1 wr_data=00 rd_data=xx full=0 empty=1
Time=125000 | wr_en=0 rd_en=0 wr_data=00 rd_data=xx full=0 empty=1
Time=135000 | wr_en=0 rd_en=0 wr_data=00 rd_data=xx full=0 empty=1
Time=145000 | wr_en=0 rd_en=0 wr_data=00 rd_data=xx full=0 empty=1
Time=155000 | wr_en=0 rd_en=0 wr_data=00 rd_data=xx full=0 empty=1
Time=175000 | wr_en=1 rd_en=0 wr_data=09 rd_data=xx full=0 empty=0
Time=185000 | wr_en=0 rd_en=0 wr_data=00 rd_data=xx full=0 empty=0
Time=195000 | wr_en=1 rd_en=0 wr_data=80 rd_data=xx full=0 empty=0
Time=205000 | wr_en=0 rd_en=0 wr_data=00 rd_data=xx full=0 empty=0
Time=215000 | wr_en=1 rd_en=0 wr_data=bb rd_data=xx full=0 empty=0
Time=225000 | wr_en=0 rd_en=0 wr_data=00 rd_data=xx full=0 empty=0
Time=235000 | wr_en=0 rd_en=1 wr_data=00 rd_data=xx full=0 empty=0
Time=245000 | wr_en=0 rd_en=0 wr_data=00 rd_data=40 full=0 empty=0
Time=255000 | wr_en=1 rd_en=0 wr_data=f6 rd_data=40 full=0 empty=0
Time=265000 | wr_en=0 rd_en=0 wr_data=00 rd_data=40 full=0 empty=0
Time=275000 | wr_en=0 rd_en=0 wr_data=00 rd_data=40 full=0 empty=0
Time=285000 | wr_en=0 rd_en=1 wr_data=00 rd_data=40 full=0 empty=0
Time=295000 | wr_en=1 rd_en=0 wr_data=fc rd_data=21 full=0 empty=0
Time=305000 | wr_en=0 rd_en=0 wr_data=00 rd_data=21 full=0 empty=0
Time=315000 | wr_en=0 rd_en=0 wr_data=00 rd_data=21 full=0 empty=0
Time=325000 | wr_en=0 rd_en=0 wr_data=00 rd_data=21 full=0 empty=0
Time=335000 | wr_en=1 rd_en=0 wr_data=55 rd_data=21 full=0 empty=0
Time=345000 | wr_en=0 rd_en=0 wr_data=00 rd_data=21 full=0 empty=0
Time=355000 | wr_en=0 rd_en=0 wr_data=00 rd_data=21 full=0 empty=0
Time=365000 | wr_en=0 rd_en=0 wr_data=00 rd_data=21 full=0 empty=0
Time=375000 | wr_en=0 rd_en=0 wr_data=00 rd_data=21 full=0 empty=0
Time=385000 | wr_en=0 rd_en=0 wr_data=00 rd_data=21 full=0 empty=0
Time=395000 | wr_en=0 rd_en=1 wr_data=00 rd_data=21 full=0 empty=0
Time=405000 | wr_en=0 rd_en=0 wr_data=00 rd_data=09 full=0 empty=0
Time=415000 | wr_en=0 rd_en=0 wr_data=00 rd_data=09 full=0 empty=0
Time=425000 | wr_en=0 rd_en=0 wr_data=00 rd_data=09 full=0 empty=0
Time=435000 | wr_en=0 rd_en=0 wr_data=00 rd_data=09 full=0 empty=0
Time=445000 | wr_en=0 rd_en=0 wr_data=00 rd_data=09 full=0 empty=0
Time=455000 | wr_en=0 rd_en=1 wr_data=00 rd_data=09 full=0 empty=0
Time=465000 | wr_en=0 rd_en=0 wr_data=00 rd_data=80 full=0 empty=0
Time=475000 | wr_en=1 rd_en=0 wr_data=67 rd_data=80 full=0 empty=0
Time=485000 | wr_en=0 rd_en=0 wr_data=00 rd_data=80 full=0 empty=0
Time=495000 | wr_en=1 rd_en=0 wr_data=74 rd_data=80 full=0 empty=0
Time=505000 | wr_en=0 rd_en=0 wr_data=00 rd_data=80 full=0 empty=0
Time=515000 | wr_en=1 rd_en=0 wr_data=62 rd_data=80 full=0 empty=0
Time=525000 | wr_en=0 rd_en=0 wr_data=00 rd_data=80 full=0 empty=0
Time=535000 | wr_en=0 rd_en=0 wr_data=00 rd_data=80 full=0 empty=0
Time=545000 | wr_en=0 rd_en=0 wr_data=00 rd_data=80 full=0 empty=0
Time=555000 | wr_en=0 rd_en=0 wr_data=00 rd_data=80 full=0 empty=0
Time=565000 | wr_en=0 rd_en=0 wr_data=00 rd_data=80 full=0 empty=0
Time=575000 | wr_en=0 rd_en=0 wr_data=00 rd_data=80 full=0 empty=0
Time=585000 | wr_en=0 rd_en=0 wr_data=00 rd_data=80 full=0 empty=0
Time=595000 | wr_en=0 rd_en=0 wr_data=00 rd_data=80 full=0 empty=0
Time=605000 | wr_en=0 rd_en=0 wr_data=00 rd_data=80 full=0 empty=0
Time=615000 | wr_en=0 rd_en=0 wr_data=00 rd_data=80 full=0 empty=0
Time=625000 | wr_en=1 rd_en=0 wr_data=16 rd_data=80 full=0 empty=0
Time=635000 | wr_en=0 rd_en=0 wr_data=00 rd_data=80 full=0 empty=0
Time=645000 | wr_en=0 rd_en=0 wr_data=00 rd_data=80 full=0 empty=0
Time=655000 | wr_en=0 rd_en=0 wr_data=00 rd_data=80 full=0 empty=0
Time=665000 | wr_en=1 rd_en=0 wr_data=85 rd_data=80 full=0 empty=0
Time=675000 | wr_en=0 rd_en=0 wr_data=00 rd_data=80 full=0 empty=0
Time=685000 | wr_en=0 rd_en=0 wr_data=00 rd_data=80 full=0 empty=0
Time=695000 | wr_en=0 rd_en=1 wr_data=00 rd_data=80 full=0 empty=0
Time=705000 | wr_en=0 rd_en=0 wr_data=00 rd_data=31 full=0 empty=0
Time=715000 | wr_en=0 rd_en=1 wr_data=00 rd_data=31 full=0 empty=0
Time=725000 | wr_en=0 rd_en=0 wr_data=00 rd_data=32 full=0 empty=0
Time=735000 | wr_en=0 rd_en=1 wr_data=00 rd_data=32 full=0 empty=0
Time=745000 | wr_en=0 rd_en=0 wr_data=00 rd_data=00 full=0 empty=0
Time=755000 | wr_en=0 rd_en=1 wr_data=00 rd_data=00 full=0 empty=0
Time=765000 | wr_en=0 rd_en=0 wr_data=00 rd_data=00 full=0 empty=0
Time=775000 | wr_en=0 rd_en=0 wr_data=00 rd_data=00 full=0 empty=0
Time=785000 | wr_en=0 rd_en=0 wr_data=00 rd_data=00 full=0 empty=0
Time=795000 | wr_en=0 rd_en=0 wr_data=00 rd_data=00 full=0 empty=0
Time=805000 | wr_en=0 rd_en=0 wr_data=00 rd_data=00 full=0 empty=0
Time=815000 | wr_en=0 rd_en=0 wr_data=00 rd_data=00 full=0 empty=0
Time=825000 | wr_en=0 rd_en=0 wr_data=00 rd_data=00 full=0 empty=0
Time=835000 | wr_en=0 rd_en=1 wr_data=00 rd_data=00 full=0 empty=0
Time=845000 | wr_en=0 rd_en=0 wr_data=00 rd_data=67 full=0 empty=0
Time=855000 | wr_en=0 rd_en=1 wr_data=00 rd_data=67 full=0 empty=0
Time=865000 | wr_en=0 rd_en=0 wr_data=00 rd_data=74 full=0 empty=0
Time=875000 | wr_en=0 rd_en=1 wr_data=00 rd_data=74 full=0 empty=1
Time=885000 | wr_en=0 rd_en=0 wr_data=00 rd_data=74 full=0 empty=1
Time=895000 | wr_en=0 rd_en=0 wr_data=00 rd_data=74 full=0 empty=1
Time=915000 | wr_en=1 rd_en=0 wr_data=38 rd_data=74 full=0 empty=0
Time=925000 | wr_en=0 rd_en=0 wr_data=00 rd_data=74 full=0 empty=0
Time=935000 | wr_en=0 rd_en=0 wr_data=00 rd_data=74 full=0 empty=0
Time=945000 | wr_en=0 rd_en=0 wr_data=00 rd_data=74 full=0 empty=0
Time=955000 | wr_en=1 rd_en=0 wr_data=a7 rd_data=74 full=0 empty=0
Time=965000 | wr_en=0 rd_en=0 wr_data=00 rd_data=74 full=0 empty=0
Time=975000 | wr_en=0 rd_en=0 wr_data=00 rd_data=74 full=0 empty=0
Time=985000 | wr_en=0 rd_en=0 wr_data=00 rd_data=74 full=0 empty=0
Time=995000 | wr_en=1 rd_en=0 wr_data=3f rd_data=74 full=0 empty=0
Time=1005000 | wr_en=0 rd_en=0 wr_data=00 rd_data=74 full=0 empty=0
Time=1015000 | wr_en=0 rd_en=0 wr_data=00 rd_data=74 full=0 empty=0
Time=1025000 | wr_en=0 rd_en=1 wr_data=00 rd_data=74 full=0 empty=0
Time=1035000 | wr_en=0 rd_en=0 wr_data=00 rd_data=62 full=0 empty=0
CT03 : Continuous Simultaneous Read & Write
Time=1045000 | wr_en=1 rd_en=1 wr_data=f8 rd_data=62 full=0 empty=0
Time=1055000 | wr_en=1 rd_en=1 wr_data=ec rd_data=16 full=0 empty=0
Time=1065000 | wr_en=1 rd_en=1 wr_data=b1 rd_data=85 full=0 empty=0
Time=1075000 | wr_en=1 rd_en=0 wr_data=a6 rd_data=38 full=0 empty=0
Time=1085000 | wr_en=1 rd_en=1 wr_data=c7 rd_data=38 full=0 empty=0
Time=1095000 | wr_en=0 rd_en=0 wr_data=00 rd_data=a7 full=0 empty=0
Time=1105000 | wr_en=1 rd_en=1 wr_data=4f rd_data=a7 full=0 empty=0
Time=1115000 | wr_en=0 rd_en=0 wr_data=00 rd_data=3f full=0 empty=0
Time=1125000 | wr_en=0 rd_en=0 wr_data=00 rd_data=3f full=0 empty=0
CT04 : Full -> Not Full -> Full
Time=1145000 | wr_en=1 rd_en=1 wr_data=c4 rd_data=3f full=0 empty=0
Time=1155000 | wr_en=0 rd_en=0 wr_data=00 rd_data=f8 full=0 empty=0
Time=1165000 | wr_en=1 rd_en=0 wr_data=24 rd_data=f8 full=0 empty=0
Time=1175000 | wr_en=0 rd_en=0 wr_data=00 rd_data=f8 full=0 empty=0
Time=1185000 | wr_en=1 rd_en=1 wr_data=6b rd_data=f8 full=0 empty=0
Time=1195000 | wr_en=0 rd_en=0 wr_data=00 rd_data=b1 full=0 empty=0
Time=1205000 | wr_en=1 rd_en=0 wr_data=28 rd_data=b1 full=0 empty=0
Time=1215000 | wr_en=0 rd_en=0 wr_data=00 rd_data=b1 full=0 empty=0
Time=1225000 | wr_en=1 rd_en=0 wr_data=cb rd_data=b1 full=0 empty=0
Time=1235000 | wr_en=0 rd_en=0 wr_data=00 rd_data=b1 full=0 empty=0
Time=1245000 | wr_en=1 rd_en=1 wr_data=61 rd_data=b1 full=0 empty=0
Time=1255000 | wr_en=0 rd_en=0 wr_data=00 rd_data=b1 full=0 empty=0
Time=1265000 | wr_en=0 rd_en=0 wr_data=00 rd_data=b1 full=0 empty=0
Time=1275000 | wr_en=0 rd_en=0 wr_data=00 rd_data=b1 full=0 empty=0
Time=1285000 | wr_en=1 rd_en=0 wr_data=9e rd_data=b1 full=0 empty=0
Time=1295000 | wr_en=0 rd_en=0 wr_data=00 rd_data=b1 full=0 empty=0
Time=1305000 | wr_en=1 rd_en=0 wr_data=b6 rd_data=b1 full=0 empty=0
Time=1315000 | wr_en=0 rd_en=0 wr_data=00 rd_data=b1 full=0 empty=0
Time=1325000 | wr_en=1 rd_en=0 wr_data=69 rd_data=b1 full=0 empty=0
Time=1335000 | wr_en=0 rd_en=0 wr_data=00 rd_data=b1 full=0 empty=0
Time=1345000 | wr_en=0 rd_en=0 wr_data=00 rd_data=b1 full=0 empty=0
Time=1365000 | wr_en=1 rd_en=1 wr_data=a4 rd_data=b1 full=0 empty=0
Time=1375000 | wr_en=0 rd_en=0 wr_data=00 rd_data=c7 full=0 empty=0
Time=1385000 | wr_en=1 rd_en=1 wr_data=ac rd_data=c7 full=0 empty=0
Time=1395000 | wr_en=0 rd_en=0 wr_data=00 rd_data=c7 full=0 empty=0
Time=1405000 | wr_en=0 rd_en=0 wr_data=00 rd_data=c7 full=0 empty=0
Time=1415000 | wr_en=0 rd_en=1 wr_data=00 rd_data=c7 full=0 empty=0
Time=1425000 | wr_en=1 rd_en=0 wr_data=fd rd_data=4f full=0 empty=0
Time=1435000 | wr_en=0 rd_en=1 wr_data=00 rd_data=4f full=0 empty=0
Time=1445000 | wr_en=1 rd_en=0 wr_data=b9 rd_data=c4 full=0 empty=0
Time=1455000 | wr_en=0 rd_en=0 wr_data=00 rd_data=c4 full=0 empty=0
Time=1465000 | wr_en=0 rd_en=0 wr_data=00 rd_data=c4 full=0 empty=0
Time=1475000 | wr_en=0 rd_en=0 wr_data=00 rd_data=c4 full=0 empty=0
Time=1485000 | wr_en=1 rd_en=0 wr_data=59 rd_data=c4 full=0 empty=0
Time=1495000 | wr_en=0 rd_en=0 wr_data=00 rd_data=c4 full=0 empty=0
Time=1505000 | wr_en=0 rd_en=0 wr_data=00 rd_data=c4 full=0 empty=0
CT05 : Empty -> Not Empty -> Empty
Time=1515000 | wr_en=0 rd_en=0 wr_data=00 rd_data=c4 full=0 empty=0
Time=1525000 | wr_en=0 rd_en=0 wr_data=00 rd_data=c4 full=0 empty=0
Time=1535000 | wr_en=0 rd_en=1 wr_data=00 rd_data=c4 full=0 empty=0
Time=1545000 | wr_en=1 rd_en=0 wr_data=65 rd_data=24 full=0 empty=0
========================================
 100 Random Transactions Completed 
========================================
Time=1555000 | wr_en=0 rd_en=0 wr_data=00 rd_data=24 full=0 empty=0
CT06 : Long Stress Operation
Time=1565000 | wr_en=1 rd_en=0 wr_data=ad rd_data=24 full=0 empty=0
Time=1575000 | wr_en=0 rd_en=0 wr_data=00 rd_data=24 full=0 empty=0
Time=1585000 | wr_en=1 rd_en=0 wr_data=76 rd_data=24 full=0 empty=0
Time=1595000 | wr_en=0 rd_en=0 wr_data=00 rd_data=24 full=0 empty=0
Time=1605000 | wr_en=1 rd_en=0 wr_data=32 rd_data=24 full=0 empty=0
Time=1615000 | wr_en=0 rd_en=0 wr_data=00 rd_data=24 full=0 empty=0
Time=1625000 | wr_en=1 rd_en=1 wr_data=5a rd_data=24 full=0 empty=0
Time=1635000 | wr_en=0 rd_en=0 wr_data=00 rd_data=6b full=0 empty=0
Time=1645000 | wr_en=1 rd_en=1 wr_data=6f rd_data=6b full=0 empty=0
Time=1655000 | wr_en=0 rd_en=0 wr_data=00 rd_data=28 full=0 empty=0
Time=1665000 | wr_en=0 rd_en=1 wr_data=00 rd_data=28 full=0 empty=0
Time=1675000 | wr_en=0 rd_en=0 wr_data=00 rd_data=00 full=0 empty=0
Time=1685000 | wr_en=0 rd_en=1 wr_data=00 rd_data=00 full=0 empty=0
Time=1695000 | wr_en=0 rd_en=0 wr_data=00 rd_data=61 full=0 empty=0
Time=1705000 | wr_en=0 rd_en=1 wr_data=00 rd_data=61 full=0 empty=0
Time=1715000 | wr_en=0 rd_en=0 wr_data=00 rd_data=9e full=0 empty=0
Time=1725000 | wr_en=0 rd_en=1 wr_data=00 rd_data=9e full=0 empty=0
Time=1735000 | wr_en=0 rd_en=0 wr_data=00 rd_data=b6 full=0 empty=0
Time=1745000 | wr_en=0 rd_en=1 wr_data=00 rd_data=b6 full=0 empty=0
Time=1755000 | wr_en=0 rd_en=0 wr_data=00 rd_data=69 full=0 empty=0
Time=1765000 | wr_en=1 rd_en=1 wr_data=bc rd_data=69 full=0 empty=0
Time=1775000 | wr_en=0 rd_en=0 wr_data=00 rd_data=a4 full=0 empty=0
Time=1785000 | wr_en=1 rd_en=1 wr_data=a2 rd_data=a4 full=0 empty=0
Time=1795000 | wr_en=0 rd_en=0 wr_data=00 rd_data=ac full=0 empty=0
Time=1805000 | wr_en=1 rd_en=1 wr_data=68 rd_data=ac full=0 empty=0
Time=1815000 | wr_en=0 rd_en=0 wr_data=00 rd_data=fd full=0 empty=0
Time=1825000 | wr_en=1 rd_en=0 wr_data=d5 rd_data=fd full=0 empty=0
Time=1835000 | wr_en=0 rd_en=0 wr_data=00 rd_data=fd full=0 empty=0
Time=1845000 | wr_en=1 rd_en=0 wr_data=ee rd_data=fd full=0 empty=0
Time=1855000 | wr_en=0 rd_en=0 wr_data=00 rd_data=fd full=0 empty=0
Time=1865000 | wr_en=1 rd_en=1 wr_data=4d rd_data=fd full=0 empty=0
Time=1875000 | wr_en=0 rd_en=0 wr_data=00 rd_data=00 full=0 empty=0
Time=1885000 | wr_en=1 rd_en=0 wr_data=61 rd_data=00 full=0 empty=0
Time=1895000 | wr_en=0 rd_en=0 wr_data=00 rd_data=00 full=0 empty=0
Time=1905000 | wr_en=1 rd_en=0 wr_data=a7 rd_data=00 full=0 empty=0
Time=1915000 | wr_en=0 rd_en=0 wr_data=00 rd_data=00 full=0 empty=0
Time=1925000 | wr_en=1 rd_en=1 wr_data=33 rd_data=00 full=0 empty=0
Time=1935000 | wr_en=0 rd_en=0 wr_data=00 rd_data=2f full=0 empty=0
Time=1945000 | wr_en=1 rd_en=1 wr_data=05 rd_data=2f full=0 empty=0
Time=1955000 | wr_en=0 rd_en=0 wr_data=00 rd_data=65 full=0 empty=0
Time=1965000 | wr_en=1 rd_en=0 wr_data=1c rd_data=65 full=0 empty=0
Time=1975000 | wr_en=0 rd_en=0 wr_data=00 rd_data=65 full=0 empty=0
Time=1985000 | wr_en=1 rd_en=1 wr_data=bc rd_data=65 full=0 empty=0
Time=1995000 | wr_en=0 rd_en=0 wr_data=00 rd_data=ad full=0 empty=0
Time=2005000 | wr_en=0 rd_en=1 wr_data=00 rd_data=ad full=0 empty=0
Time=2015000 | wr_en=0 rd_en=0 wr_data=00 rd_data=76 full=0 empty=0
Time=2025000 | wr_en=1 rd_en=1 wr_data=5c rd_data=76 full=0 empty=0
Time=2035000 | wr_en=0 rd_en=0 wr_data=00 rd_data=32 full=0 empty=0
Time=2045000 | wr_en=1 rd_en=1 wr_data=ca rd_data=32 full=0 empty=0
Time=2055000 | wr_en=0 rd_en=0 wr_data=00 rd_data=5a full=0 empty=0
Time=2065000 | wr_en=1 rd_en=1 wr_data=c9 rd_data=5a full=0 empty=0
Time=2075000 | wr_en=0 rd_en=0 wr_data=00 rd_data=6f full=0 empty=0
Time=2085000 | wr_en=1 rd_en=1 wr_data=02 rd_data=6f full=0 empty=0
Time=2095000 | wr_en=0 rd_en=0 wr_data=00 rd_data=bc full=0 empty=0
Time=2105000 | wr_en=0 rd_en=1 wr_data=00 rd_data=bc full=0 empty=0
Time=2115000 | wr_en=0 rd_en=0 wr_data=00 rd_data=a2 full=0 empty=0
Time=2125000 | wr_en=0 rd_en=1 wr_data=00 rd_data=a2 full=0 empty=0
Time=2135000 | wr_en=0 rd_en=0 wr_data=00 rd_data=68 full=0 empty=0
Time=2145000 | wr_en=0 rd_en=1 wr_data=00 rd_data=68 full=0 empty=0
Time=2155000 | wr_en=0 rd_en=0 wr_data=00 rd_data=d5 full=0 empty=0
Time=2165000 | wr_en=1 rd_en=1 wr_data=2c rd_data=d5 full=0 empty=0
Time=2175000 | wr_en=0 rd_en=0 wr_data=00 rd_data=ee full=0 empty=0
Time=2185000 | wr_en=0 rd_en=1 wr_data=00 rd_data=ee full=0 empty=0
Time=2195000 | wr_en=0 rd_en=0 wr_data=00 rd_data=4d full=0 empty=0
Time=2205000 | wr_en=0 rd_en=1 wr_data=00 rd_data=4d full=0 empty=0
Time=2215000 | wr_en=0 rd_en=0 wr_data=00 rd_data=61 full=0 empty=0
Time=2225000 | wr_en=0 rd_en=1 wr_data=00 rd_data=61 full=0 empty=0
Time=2235000 | wr_en=0 rd_en=0 wr_data=00 rd_data=a7 full=0 empty=0
Time=2245000 | wr_en=1 rd_en=1 wr_data=ed rd_data=a7 full=0 empty=0
Time=2255000 | wr_en=0 rd_en=0 wr_data=00 rd_data=33 full=0 empty=0
Time=2265000 | wr_en=1 rd_en=1 wr_data=26 rd_data=33 full=0 empty=0
Time=2275000 | wr_en=0 rd_en=0 wr_data=00 rd_data=05 full=0 empty=0
Time=2285000 | wr_en=0 rd_en=1 wr_data=00 rd_data=05 full=0 empty=0
Time=2295000 | wr_en=0 rd_en=0 wr_data=00 rd_data=1c full=0 empty=0
Time=2305000 | wr_en=0 rd_en=1 wr_data=00 rd_data=1c full=0 empty=0
Time=2315000 | wr_en=0 rd_en=0 wr_data=00 rd_data=bc full=0 empty=0
Time=2325000 | wr_en=1 rd_en=1 wr_data=ec rd_data=bc full=0 empty=0
Time=2335000 | wr_en=0 rd_en=0 wr_data=00 rd_data=5c full=0 empty=0
Time=2345000 | wr_en=1 rd_en=1 wr_data=aa rd_data=5c full=0 empty=0
Time=2355000 | wr_en=0 rd_en=0 wr_data=aa rd_data=ca full=0 empty=0
Time=2365000 | wr_en=0 rd_en=1 wr_data=aa rd_data=ca full=0 empty=0
Time=2375000 | wr_en=0 rd_en=0 wr_data=aa rd_data=c9 full=0 empty=0
Time=2385000 | wr_en=0 rd_en=1 wr_data=aa rd_data=c9 full=0 empty=0
Time=2395000 | wr_en=0 rd_en=0 wr_data=aa rd_data=02 full=0 empty=0
========================================
 Directed Test Cases Completed 
========================================
Time=2405000 | wr_en=1 rd_en=0 wr_data=36 rd_data=02 full=0 empty=0
Time=2415000 | wr_en=0 rd_en=0 wr_data=00 rd_data=02 full=0 empty=0
====================================
 Simulation Completed 
====================================
tb/fifo_tb.v:280: $finish called at 2425000 (1ps)
Time=2425000 | wr_en=0 rd_en=1 wr_data=00 rd_data=02 full=0 empty=0